0.00000000e+000;-9.85095791e-012
3.60000000e+003;2.69106909e-002
7.20000000e+003;5.38145875e-002
1.08000000e+004;7.99746474e-002
1.44000000e+004;1.05411436e-001
1.80000000e+004;1.30144950e-001
2.16000000e+004;1.54194634e-001
2.52000000e+004;1.77579394e-001
2.88000000e+004;2.00317615e-001
3.24000000e+004;2.22427170e-001
3.60000000e+004;2.43925443e-001
3.96000000e+004;2.64829333e-001
4.32000000e+004;2.85155273e-001
4.68000000e+004;3.04919244e-001
5.04000000e+004;3.24136782e-001
5.40000000e+004;3.42822995e-001
5.76000000e+004;3.60992573e-001
6.12000000e+004;3.78659800e-001
6.48000000e+004;3.95838565e-001
6.84000000e+004;4.12542373e-001
7.20000000e+004;4.28784355e-001
7.56000000e+004;4.44577281e-001
7.92000000e+004;4.59933564e-001
8.28000000e+004;4.74865279e-001
8.64000000e+004;4.89384162e-001
9.00000000e+004;5.03501629e-001
9.36000000e+004;5.17228776e-001
9.72000000e+004;5.30576397e-001
1.00800000e+005;5.43554984e-001
1.04400000e+005;5.56174740e-001
1.08000000e+005;5.68445586e-001
1.11600000e+005;5.80377168e-001
1.15200000e+005;5.91978867e-001
1.18800000e+005;6.03259804e-001
1.22400000e+005;6.14228845e-001
1.26000000e+005;6.24894616e-001
1.29600000e+005;6.35265500e-001
1.33200000e+005;6.45349651e-001
1.36800000e+005;6.55154996e-001
1.40400000e+005;6.64689243e-001
1.44000000e+005;6.73959889e-001
1.47600000e+005;6.82974220e-001
1.51200000e+005;6.91739324e-001
1.54800000e+005;7.00262091e-001
1.58400000e+005;7.08549221e-001
1.62000000e+005;7.16607229e-001
1.65600000e+005;7.24442450e-001
1.69200000e+005;7.32061044e-001
1.72800000e+005;7.39468999e-001
1.76400000e+005;7.46672139e-001
1.80000000e+005;7.53676128e-001
1.83600000e+005;7.60486471e-001
1.87200000e+005;7.67108522e-001
1.90800000e+005;7.73547488e-001
1.94400000e+005;7.79808429e-001
1.98000000e+005;7.85896268e-001
2.01600000e+005;7.91815791e-001
2.05200000e+005;7.97571652e-001
2.08800000e+005;8.03168375e-001
2.12400000e+005;8.08610360e-001
2.16000000e+005;8.13901886e-001
2.19600000e+005;8.19047112e-001
2.23200000e+005;8.24050083e-001
2.26800000e+005;8.28914733e-001
2.30400000e+005;8.33644885e-001
2.34000000e+005;8.38244258e-001
2.37600000e+005;8.42716468e-001
2.41200000e+005;8.47065030e-001
2.44800000e+005;8.51293364e-001
2.48400000e+005;8.55404794e-001
2.52000000e+005;8.59402551e-001
2.55600000e+005;8.63289778e-001
2.59200000e+005;8.67069531e-001
2.62800000e+005;8.70744783e-001
2.66400000e+005;8.74318421e-001
2.70000000e+005;8.77793255e-001
2.73600000e+005;8.81172018e-001
2.77200000e+005;8.84457364e-001
2.80800000e+005;8.87651878e-001
2.84400000e+005;8.90758070e-001
2.88000000e+005;8.93778382e-001
2.91600000e+005;8.96715189e-001
2.95200000e+005;8.99570800e-001
2.98800000e+005;9.02347458e-001
3.02400000e+005;9.05047348e-001
3.06000000e+005;9.07672591e-001
3.09600000e+005;9.10225252e-001
3.13200000e+005;9.12707337e-001
3.16800000e+005;9.15120798e-001
3.20400000e+005;9.17467532e-001
3.24000000e+005;9.19749383e-001
3.27600000e+005;9.21968146e-001
3.31200000e+005;9.24125564e-001
3.34800000e+005;9.26223335e-001
3.38400000e+005;9.28263106e-001
3.42000000e+005;9.30246482e-001
3.45600000e+005;9.32175022e-001
3.49200000e+005;9.34050241e-001
3.52800000e+005;9.35873615e-001
3.56400000e+005;9.37646576e-001 